{
  "serial": {
    "module": "gw",
    "script": "./services/serial.js",
    "args": ["--save"]
  },
  "agent": {
    "module": "agent",
    "script": "index.js",
    "args": {
      "--devicePath": "/dev/ttyAMA0"
    }
  },
  "wifi": {
    "module": "gw-wifi",
    "script": "index.js",
    "args": {
      "--port": 80
    }
  },
  "env": {
    "NODE_ENV": "production"
  }
}